<svg width="15" height="16" viewBox="0 0 15 16" fill="none" xmlns="http://www.w3.org/2000/svg">
<g id="IONIcon/R/rocket/sharp">
<path id="Vector" d="M13.9934 1.62161C13.988 1.5957 13.9754 1.57185 13.957 1.55286C13.9386 1.53387 13.9151 1.52052 13.8894 1.51439C12.1735 1.09485 8.20871 2.58987 6.06066 4.73704C5.67754 5.11707 5.32827 5.52976 5.01682 5.97044C4.35442 5.91184 3.69201 5.96077 3.12746 6.20686C1.53459 6.90794 1.07082 8.73723 0.941623 9.52415C0.934295 9.56722 0.937059 9.6114 0.949699 9.65322C0.962338 9.69505 0.984508 9.73337 1.01447 9.76517C1.04442 9.79697 1.08135 9.82139 1.12234 9.8365C1.16333 9.85162 1.20727 9.85702 1.25071 9.85227L3.80861 9.57014C3.81044 9.76299 3.82208 9.95562 3.84348 10.1473C3.85635 10.2804 3.91543 10.4048 4.01047 10.4989L5.001 11.487C5.09516 11.582 5.2195 11.641 5.35256 11.654C5.54315 11.6754 5.73471 11.687 5.92648 11.6889L5.64582 14.2436C5.64114 14.287 5.64658 14.3309 5.66171 14.3719C5.67685 14.4128 5.70127 14.4497 5.73306 14.4797C5.76485 14.5096 5.80314 14.5318 5.84493 14.5445C5.88673 14.5571 5.93088 14.5599 5.97395 14.5527C6.75939 14.4267 8.59191 13.9629 9.28889 12.37C9.53498 11.8055 9.58537 11.1463 9.52853 10.4871C9.97028 10.1757 10.3841 9.82629 10.7652 9.443C12.9199 7.29905 14.4065 3.42278 13.9934 1.62161ZM8.61535 6.88538C8.41859 6.68875 8.28457 6.43818 8.23023 6.16537C8.1759 5.89256 8.20369 5.60976 8.3101 5.35275C8.41651 5.09574 8.59675 4.87606 8.82803 4.7215C9.0593 4.56693 9.33122 4.48444 9.60939 4.48444C9.88756 4.48444 10.1595 4.56693 10.3908 4.7215C10.622 4.87606 10.8023 5.09574 10.9087 5.35275C11.0151 5.60976 11.0429 5.89256 10.9886 6.16537C10.9342 6.43818 10.8002 6.68875 10.6034 6.88538C10.473 7.01604 10.318 7.11969 10.1474 7.19042C9.97688 7.26114 9.79404 7.29754 9.60939 7.29754C9.42475 7.29754 9.24191 7.26114 9.07134 7.19042C8.90077 7.11969 8.74582 7.01604 8.61535 6.88538Z" fill="#4FD1C5"/>
<path id="Vector_2" d="M4.93359 12.2028C4.77305 12.3637 4.51553 12.4264 4.20557 12.48C3.50918 12.5986 2.89424 11.9969 3.01934 11.2929C3.06709 11.026 3.2083 10.6519 3.29619 10.564C3.3154 10.5451 3.32819 10.5207 3.33273 10.4942C3.33728 10.4677 3.33336 10.4404 3.32152 10.4162C3.30968 10.3921 3.29053 10.3722 3.26679 10.3596C3.24305 10.3469 3.21592 10.3421 3.18926 10.3457C2.79983 10.3933 2.43754 10.5699 2.16006 10.8473C1.47129 11.5366 1.40625 14.0945 1.40625 14.0945C1.40625 14.0945 3.96562 14.0295 4.65439 13.3401C4.93261 13.0629 5.10939 12.7 5.15625 12.3101C5.16709 12.1876 5.01797 12.1146 4.93359 12.2028Z" fill="#4FD1C5"/>
</g>
</svg>
