<svg width="16" height="16" viewBox="0 0 16 16" fill="none" xmlns="http://www.w3.org/2000/svg">
<g id="Icon">
<path id="Vector" d="M14.1301 13.0962L11.3736 10.3397C12.0372 9.45617 12.3955 8.38077 12.3943 7.27579C12.3943 4.45333 10.098 2.15704 7.27551 2.15704C4.45305 2.15704 2.15676 4.45333 2.15676 7.27579C2.15676 10.0983 4.45305 12.3945 7.27551 12.3945C8.38049 12.3957 9.45588 12.0375 10.3394 11.3738L13.0959 14.1304C13.2355 14.2551 13.4174 14.3217 13.6045 14.3165C13.7916 14.3112 13.9696 14.2346 14.1019 14.1022C14.2343 13.9699 14.3109 13.7919 14.3162 13.6048C14.3214 13.4177 14.2548 13.2357 14.1301 13.0962ZM3.61926 7.27579C3.61926 6.55265 3.8337 5.84576 4.23545 5.24449C4.6372 4.64322 5.20823 4.17459 5.87632 3.89786C6.54441 3.62113 7.27956 3.54872 7.98881 3.6898C8.69805 3.83087 9.34953 4.1791 9.86087 4.69043C10.3722 5.20177 10.7204 5.85325 10.8615 6.56249C11.0026 7.27174 10.9302 8.00688 10.6534 8.67498C10.3767 9.34307 9.90808 9.9141 9.30681 10.3159C8.70554 10.7176 7.99865 10.932 7.27551 10.932C6.30617 10.9309 5.37686 10.5453 4.69144 9.85987C4.00601 9.17444 3.62042 8.24513 3.61926 7.27579Z" fill="#2D3748"/>
</g>
</svg>
